User-defined Function, Loop, and Parallelization
…
}
```

Let's create a sequence of `N` values at which we evaluate the profit, and then calculate profit at each level of `N`.

```r
data_main <- tibble(N = seq(0.1, 300, by = 0.1)) %>% 
  mutate(profit = get_profit(N, 3.5, 0.4))
```

```
## # A tibble: 3,000 x 2
##        N profit
##    <dbl>  <dbl>
##  1   0.1   218.
##  2   0.2   279.
##  3   0.3   315.
##  4   0.4   340.
##  5   0.5   359.
##  6   0.6   375.
##  7   0.7   389.
##  8   0.8   400.
##  9   0.9   410.
## 10   1     420.
## # … with 2,990 more rows
```
…
