R as GIS: Interaction of Vector Datasets
…
Since we want groundwater extraction by county, the following does the job.

```r
KS_County_wells %>% 
  group_by(COUNTYFP) %>% 
  summarize(af_used = sum(af_used, na.rm = TRUE)) 
```

```
## Simple feature collection with 105 features and 2 fields
## geometry type:  MULTIPOLYGON
## dimension:      XY
## bbox:           xmin: -102.0517 ymin: 36.99308 xmax: -94.59193 ymax: 40.00308
## geographic CRS: NAD83
## # A tibble: 105 x 3
##    COUNTYFP af_used                                                        geometry
##    <fct>      <dbl>                                              <MULTIPOLYGON [°]>
##  1 001           0  (((-95.51931 37.82026, -95.51897 38.03823, -95.07788 38.03771,…
##  2 003           0  (((-95.50833 38.39028, -95.06583 38.38994, -95.07788 38.03771,…
##  3 005         771. (((-95.56413 39.65287, -95.33974 39.65298, -95.11519 39.65255,…
##  4 007        4972. (((-99.0126 37.47042, -98.46466 37.47101, -98.46493 37.38414, …
##  5 009       61083. (((-99.03297 38.69676, -98.48611 38.69688, -98.47991 38.68153,…
##  6 011           0  (((-95.08808 37.73248, -95.07969 37.8198, -95.07788 38.03771, …
##  7 013         480. (((-95.78811 40.00047, -95.78457 40.00046, -95.3399 40.00003, …
##  8 015         343. (((-97.15248 37.91273, -97.15291 38.0877, -96.84077 38.08562, …
##  9 017           0  (((-96.83765 38.34864, -96.81951 38.52245, -96.35378 38.52166,…
## 10 019           0  (((-96.52487 37.30273, -95.9644 37.29923, -95.96427 36.99922, …
## # … with 95 more rows
```
…
```
## Simple feature collection with 55 features and 2 fields
## geometry type:  GEOMETRY
## dimension:      XY
## bbox:           xmin: 203228.6 ymin: 4470941 xmax: 736832.9 ymax: 4822687
## projected CRS:  NAD83 / UTM zone 15N
## # A tibble: 55 x 3
##    HUC_CODE aw_acres                                                       geometry
##    <chr>       <dbl>                                                 <GEOMETRY [m]>
##  1 07020009  251185. POLYGON ((421317.6 4797774, 421160.2 4797630, 421060.3 479755…
##  2 07040008  165000  POLYGON ((602931.1 4817205, 602922.4 4817166, 602862.4 481699…
##  3 07060001  105234. MULTIPOLYGON (((649942.7 4761635, 649613.8 4761791, 649473.8 …
##  4 07060002  140201. MULTIPOLYGON (((593265.8 4817066, 593390.7 4817045, 593570.7 …
##  5 07060003  149000  MULTIPOLYGON (((692249.2 4712890, 692081.6 4712936, 692051.6 …
##  6 07060004  162123. POLYGON ((653200.5 4718418, 652956.5 4718503, 652446.5 471873…
##  7 07060005  142428. POLYGON ((735347.9 4642386, 734770.6 4642296, 734450.5 464222…
##  8 07060006  159635. POLYGON ((721064.4 4656959, 721056 4656900, 721026 4656760, 7…
##  9 07080101  115572. POLYGON ((667461.7 4558779, 667381 4558691, 667210.9 4558582,…
## 10 07080102  160008. POLYGON ((635032.9 4675777, 635236 4675644, 635356.1 4675614,…
## # … with 45 more rows
```
