Creating Tables with gt
…
# Create a gt table based on a preprocessed `countrypops`
*countrypops %>%
* dplyr::filter(country_code_2 %in% c(
*   Australasia, Melanesia, Micronesia, Polynesia)
* )
```
]
 
.panel2-countrypops-user[

```
## # A tibble: 986 x 5
##    country_name country_code_2
##    <chr>        <chr>         
##  1 Australia    AU            
##  2 Australia    AU            
##  3 Australia    AU            
##  4 Australia    AU            
##  5 Australia    AU            
##  6 Australia    AU            
##  7 Australia    AU            
##  8 Australia    AU            
##  9 Australia    AU            
## 10 Australia    AU            
## # … with 976 more rows, and 3
## #   more variables:
## #   country_code_3 <chr>,
## #   year <int>,
## #   population <int>
```
…
# Create a gt table based on a preprocessed `countrypops`
countrypops %>%
  dplyr::filter(country_code_2 %in% c(
    Australasia, Melanesia, Micronesia, Polynesia)
  ) %>%
* dplyr::filter(year %in% c(1995, 2005, 2015))
```
]
 
.panel2-countrypops-user[

```
## # A tibble: 51 x 5
##    country_name country_code_2
##    <chr>        <chr>         
##  1 Australia    AU            
##  2 Australia    AU            
##  3 Australia    AU            
##  4 Micronesia … FM            
##  5 Micronesia … FM            
##  6 Micronesia … FM            
##  7 Guam         GU            
##  8 Guam         GU            
##  9 Guam         GU            
## 10 Kiribati     KI            
## # … with 41 more rows, and 3
## #   more variables:
## #   country_code_3 <chr>,
## #   year <int>,
## #   population <int>
```
…
.panel2-countrypops-user[

```
## # A tibble: 51 x 6
##    country_name country_code_2
##    <chr>        <chr>         
##  1 Australia    AU            
##  2 Australia    AU            
##  3 Australia    AU            
##  4 Micronesia … FM            
##  5 Micronesia … FM            
##  6 Micronesia … FM            
##  7 Guam         GU            
##  8 Guam         GU            
##  9 Guam         GU            
## 10 Kiribati     KI            
## # … with 41 more rows, and 4
## #   more variables:
## #   country_code_3 <chr>,
## #   year <int>,
## #   population <int>,
## #   region <chr>
```
…
