Data visualization with ggplot2
…
This exercise use the `diamonds` dataset from the `ggplot2()` package. First, load the dataset and extract observations with `Premium` cut whose color is one of `E`, `I`, and `F`:

```r
data('diamonds')
premium <- diamonds %>%
  filter(
    cut=='Premium' & color %in% c('E','I','F')
    )

#--- take a look ---#
premium
```

```
## # A tibble: 6,096 x 10
##    carat cut     color clarity depth table price     x     y     z
##    <dbl> <ord>   <ord> <ord>   <dbl> <dbl> <int> <dbl> <dbl> <dbl>
##  1 0.21  Premium E     SI1      59.8    61   326  3.89  3.84  2.31
##  2 0.290 Premium I     VS2      62.4    58   334  4.2   4.23  2.63
##  3 0.22  Premium F     SI1      60.4    61   342  3.88  3.84  2.33
##  4 0.2   Premium E     SI2      60.2    62   345  3.79  3.75  2.27
##  5 0.32  Premium E     I1       60.9    58   345  4.38  4.42  2.68
##  6 0.24  Premium I     VS1      62.5    57   355  3.97  3.94  2.47
##  7 0.290 Premium F     SI1      62.4    58   403  4.24  4.26  2.65
##  8 0.22  Premium E     VS2      61.6    58   404  3.93  3.89  2.41
##  9 0.42  Premium I     SI2      61.5    59   552  4.78  4.84  2.96
## 10 0.24  Premium E     VVS1     60.7    58   553  4.01  4.03  2.44
## # â€¦ with 6,086 more rows
```
…
