Miscellaneous Useful Functions and Tips
…
Load the package: 

```r
library(gt)
```

The `pizzaplace` dataset is available immediately after you loaded the package.

```r
pizzaplace
```

```
## # A tibble: 49,574 x 7
##    id          date       time     name        size  type    price
##    <chr>       <chr>      <chr>    <chr>       <chr> <chr>   <dbl>
##  1 2015-000001 2015-01-01 11:38:36 hawaiian    M     classic  13.2
##  2 2015-000002 2015-01-01 11:57:40 classic_dlx M     classic  16  
##  3 2015-000002 2015-01-01 11:57:40 mexicana    M     veggie   16  
##  4 2015-000002 2015-01-01 11:57:40 thai_ckn    L     chicken  20.8
##  5 2015-000002 2015-01-01 11:57:40 five_cheese L     veggie   18.5
##  6 2015-000002 2015-01-01 11:57:40 ital_supr   L     supreme  20.8
##  7 2015-000003 2015-01-01 12:12:28 prsc_argla  L     supreme  20.8
##  8 2015-000003 2015-01-01 12:12:28 ital_supr   M     supreme  16.5
##  9 2015-000004 2015-01-01 12:16:31 ital_supr   M     supreme  16.5
## 10 2015-000005 2015-01-01 12:21:30 ital_supr   M     supreme  16.5
## # … with 49,564 more rows
```
…
.content-box-green[**Example**]

```r
pizzaplace %>% 
  #--- convert to Date ---#
  mutate(date = ymd(date)) %>% 
  #--- format ---#
  mutate(date_txt_f1 = format(date, "%m/%d/%y")) %>% 
  mutate(date_txt_f2 = format(date, "%m %B %Y")) %>% 
  select(date_txt_f1, date_txt_f2)
```

```
## # A tibble: 49,574 x 2
##    date_txt_f1 date_txt_f2    
##    <chr>       <chr>          
##  1 01/01/15    01 January 2015
##  2 01/01/15    01 January 2015
##  3 01/01/15    01 January 2015
##  4 01/01/15    01 January 2015
##  5 01/01/15    01 January 2015
##  6 01/01/15    01 January 2015
##  7 01/01/15    01 January 2015
##  8 01/01/15    01 January 2015
##  9 01/01/15    01 January 2015
## 10 01/01/15    01 January 2015
## # … with 49,564 more rows
```
…
  <!-- panel ends here -->

.panel[.panel-name[math 2]

.content-box-green[**filter (logical evaluation)**]

```r
pizzaplace %>% 
  #--- convert to Date ---#
  mutate(date = ymd(date)) %>%  
  filter(date >= as.Date("2015-05-01"))
```

```
## # A tibble: 32,969 x 7
##    id          date       time     name        size  type    price
##    <chr>       <date>     <chr>    <chr>       <chr> <chr>   <dbl>
##  1 2015-007170 2015-05-01 11:31:03 classic_dlx M     classic  16  
##  2 2015-007171 2015-05-01 11:42:07 bbq_ckn     S     chicken  12.8
##  3 2015-007172 2015-05-01 11:43:01 bbq_ckn     S     chicken  12.8
##  4 2015-007173 2015-05-01 11:43:37 mexicana    L     veggie   20.2
##  5 2015-007174 2015-05-01 11:51:22 ital_supr   S     supreme  12.5
##  6 2015-007174 2015-05-01 11:51:22 ital_supr   L     supreme  20.8
##  7 2015-007174 2015-05-01 11:51:22 calabrese   M     supreme  16.2
##  8 2015-007174 2015-05-01 11:51:22 four_cheese L     veggie   18.0
##  9 2015-007174 2015-05-01 11:51:22 classic_dlx L     classic  20.5
## 10 2015-007174 2015-05-01 11:51:22 spicy_ital  L     supreme  20.8
## # … with 32,959 more rows
```
…
.panel[.panel-name[use case]

.content-box-green[**Concatenating string variables in a dataset**]

Sometimes, you want to concatenate two (or more) string variables into one variable. 

For example, suppose you would like to combine pizza `size` and `type` into a single variable to make it easier to create faceted figures by `size`-`type`.

```r
pizzaplace <- mutate(pizzaplace, type_size = str_c(type, size, sep = "-"))
```

```
## # A tibble: 49,574 x 8
##    id          date       time     name        size  type    price type_size
##    <chr>       <chr>      <chr>    <chr>       <chr> <chr>   <dbl> <chr>    
##  1 2015-000001 2015-01-01 11:38:36 hawaiian    M     classic  13.2 classic-M
##  2 2015-000002 2015-01-01 11:57:40 classic_dlx M     classic  16   classic-M
##  3 2015-000002 2015-01-01 11:57:40 mexicana    M     veggie   16   veggie-M 
##  4 2015-000002 2015-01-01 11:57:40 thai_ckn    L     chicken  20.8 chicken-L
##  5 2015-000002 2015-01-01 11:57:40 five_cheese L     veggie   18.5 veggie-L 
##  6 2015-000002 2015-01-01 11:57:40 ital_supr   L     supreme  20.8 supreme-L
##  7 2015-000003 2015-01-01 12:12:28 prsc_argla  L     supreme  20.8 supreme-L
##  8 2015-000003 2015-01-01 12:12:28 ital_supr   M     supreme  16.5 supreme-M
##  9 2015-000004 2015-01-01 12:16:31 ital_supr   M     supreme  16.5 supreme-M
## 10 2015-000005 2015-01-01 12:21:30 ital_supr   M     supreme  16.5 supreme-M
## # … with 49,564 more rows
```
…
But, if you are splitting a variable into two variables, `dplyr::separate()` is a better option.

```r
pizzaplace %>% separate(type_size, c("type_2", "size_2"), "-") %>% 
  select(id, type, type_2, size, size_2)
```

```
## # A tibble: 49,574 x 5
##    id          type    type_2  size  size_2
##    <chr>       <chr>   <chr>   <chr> <chr> 
##  1 2015-000001 classic classic M     M     
##  2 2015-000002 classic classic M     M     
##  3 2015-000002 veggie  veggie  M     M     
##  4 2015-000002 chicken chicken L     L     
##  5 2015-000002 veggie  veggie  L     L     
##  6 2015-000002 supreme supreme L     L     
##  7 2015-000003 supreme supreme L     L     
##  8 2015-000003 supreme supreme M     M     
##  9 2015-000004 supreme supreme M     M     
## 10 2015-000005 supreme supreme M     M     
## # … with 49,564 more rows
```
…
```
## [1] "01/01/2015" "01/01/2015" "01/01/2015" "01/01/2015" "01/01/2015" "01/01/2015"
```

So, you would like to replace "20" with "" (nothing).

```r
pizzaplace_for_plot %>% 
  mutate(date_text = str_replace(date_text, "20", "")) %>% 
  select(id, date_text, size, type)
```

```
## # A tibble: 49,574 x 4
##    id          date_text size  type   
##    <chr>       <chr>     <chr> <chr>  
##  1 2015-000001 01/01/15  M     classic
##  2 2015-000002 01/01/15  M     classic
##  3 2015-000002 01/01/15  M     veggie 
##  4 2015-000002 01/01/15  L     chicken
##  5 2015-000002 01/01/15  L     veggie 
##  6 2015-000002 01/01/15  L     supreme
##  7 2015-000003 01/01/15  L     supreme
##  8 2015-000003 01/01/15  M     supreme
##  9 2015-000004 01/01/15  M     supreme
## 10 2015-000005 01/01/15  M     supreme
## # … with 49,564 more rows
```
…
.panel[.panel-name[letter case]

Here are the collection of functions that let you change the letter case of strings.

.content-box-green[**To upper case**]

```r
pizzaplace %>% 
  mutate(name = str_to_upper(name))
```

.scroll-box-10[

```
## # A tibble: 49,574 x 8
##    id          date       time     name        size  type    price type_size
##    <chr>       <chr>      <chr>    <chr>       <chr> <chr>   <dbl> <chr>    
##  1 2015-000001 2015-01-01 11:38:36 HAWAIIAN    M     classic  13.2 classic-M
##  2 2015-000002 2015-01-01 11:57:40 CLASSIC_DLX M     classic  16   classic-M
##  3 2015-000002 2015-01-01 11:57:40 MEXICANA    M     veggie   16   veggie-M 
##  4 2015-000002 2015-01-01 11:57:40 THAI_CKN    L     chicken  20.8 chicken-L
##  5 2015-000002 2015-01-01 11:57:40 FIVE_CHEESE L     veggie   18.5 veggie-L 
##  6 2015-000002 2015-01-01 11:57:40 ITAL_SUPR   L     supreme  20.8 supreme-L
##  7 2015-000003 2015-01-01 12:12:28 PRSC_ARGLA  L     supreme  20.8 supreme-L
##  8 2015-000003 2015-01-01 12:12:28 ITAL_SUPR   M     supreme  16.5 supreme-M
##  9 2015-000004 2015-01-01 12:16:31 ITAL_SUPR   M     supreme  16.5 supreme-M
## 10 2015-000005 2015-01-01 12:21:30 ITAL_SUPR   M     supreme  16.5 supreme-M
## # … with 49,564 more rows
```
]

.content-box-green[**To lower case**]

```r
pizzaplace %>% 
  mutate(size = str_to_lower(size))
```

.scroll-box-10[

```
## # A tibble: 49,574 x 8
##    id          date       time     name        size  type    price type_size
##    <chr>       <chr>      <chr>    <chr>       <chr> <chr>   <dbl> <chr>    
##  1 2015-000001 2015-01-01 11:38:36 hawaiian    m     classic  13.2 classic-M
##  2 2015-000002 2015-01-01 11:57:40 classic_dlx m     classic  16   classic-M
##  3 2015-000002 2015-01-01 11:57:40 mexicana    m     veggie   16   veggie-M 
##  4 2015-000002 2015-01-01 11:57:40 thai_ckn    l     chicken  20.8 chicken-L
##  5 2015-000002 2015-01-01 11:57:40 five_cheese l     veggie   18.5 veggie-L 
##  6 2015-000002 2015-01-01 11:57:40 ital_supr   l     supreme  20.8 supreme-L
##  7 2015-000003 2015-01-01 12:12:28 prsc_argla  l     supreme  20.8 supreme-L
##  8 2015-000003 2015-01-01 12:12:28 ital_supr   m     supreme  16.5 supreme-M
##  9 2015-000004 2015-01-01 12:16:31 ital_supr   m     supreme  16.5 supreme-M
## 10 2015-000005 2015-01-01 12:21:30 ital_supr   m     supreme  16.5 supreme-M
## # … with 49,564 more rows
```
]

.content-box-green[**Only the first letter is capitalized**]

```r
pizzaplace %>%  
  mutate(type = str_to_title(type)) 
```

.scroll-box-10[

```
## # A tibble: 49,574 x 8
##    id          date       time     name        size  type    price type_size
##    <chr>       <chr>      <chr>    <chr>       <chr> <chr>   <dbl> <chr>    
##  1 2015-000001 2015-01-01 11:38:36 hawaiian    M     Classic  13.2 classic-M
##  2 2015-000002 2015-01-01 11:57:40 classic_dlx M     Classic  16   classic-M
##  3 2015-000002 2015-01-01 11:57:40 mexicana    M     Veggie   16   veggie-M 
##  4 2015-000002 2015-01-01 11:57:40 thai_ckn    L     Chicken  20.8 chicken-L
##  5 2015-000002 2015-01-01 11:57:40 five_cheese L     Veggie   18.5 veggie-L 
##  6 2015-000002 2015-01-01 11:57:40 ital_supr   L     Supreme  20.8 supreme-L
##  7 2015-000003 2015-01-01 12:12:28 prsc_argla  L     Supreme  20.8 supreme-L
##  8 2015-000003 2015-01-01 12:12:28 ital_supr   M     Supreme  16.5 supreme-M
##  9 2015-000004 2015-01-01 12:16:31 ital_supr   M     Supreme  16.5 supreme-M
## 10 2015-000005 2015-01-01 12:21:30 ital_supr   M     Supreme  16.5 supreme-M
## # … with 49,564 more rows
```
…
