Data wrangling with tidyverse
…
  ] 

  <!-- panel ends here -->

.panel[.panel-name[display]

.left5[

```r
hp_tbl
```

```
## # A tibble: 546 x 12
##    price lotsize bedrooms bathrooms stories driveway
##    <dbl>   <dbl>    <dbl>     <dbl>   <dbl> <fct>   
##  1 42000    5850        3         1       2 yes     
##  2 38500    4000        2         1       1 yes     
##  3 49500    3060        3         1       1 yes     
##  4 60500    6650        3         1       2 yes     
##  5 61000    6360        2         1       1 yes     
##  6 66000    4160        3         1       1 yes     
##  7 66000    3880        3         2       2 yes     
##  8 69000    4160        3         1       3 yes     
##  9 83800    4800        3         1       1 yes     
## 10 88500    5500        3         2       4 yes     
## # … with 536 more rows, and 6 more variables:
## #   recreation <fct>, fullbase <fct>, gasheat <fct>,
## #   aircon <fct>, garage <dbl>, prefer <fct>
```
…
