Data wrangling with tidyverse
…
.right5[

`tibble`

```r
HousePrices_tbl
```

```
## # A tibble: 546 x 12
##    price lotsize bedrooms bathrooms stories driveway
##    <dbl>   <dbl>    <dbl>     <dbl>   <dbl> <fct>   
##  1 42000    5850        3         1       2 yes     
##  2 38500    4000        2         1       1 yes     
##  3 49500    3060        3         1       1 yes     
##  4 60500    6650        3         1       2 yes     
##  5 61000    6360        2         1       1 yes     
##  6 66000    4160        3         1       1 yes     
##  7 66000    3880        3         2       2 yes     
##  8 69000    4160        3         1       3 yes     
##  9 83800    4800        3         1       1 yes     
## 10 88500    5500        3         2       4 yes     
## # … with 536 more rows, and 6 more variables:
## #   recreation <fct>, fullbase <fct>, gasheat <fct>,
## #   aircon <fct>, garage <dbl>, prefer <fct>
```
…
```r
a_list <- list(a = c("R", "rocks"), b = corn_yields)   

saveRDS(a_list, "a_list.rds")

readRDS("a_list.rds")
```

```
## $a
## [1] "R"     "rocks"
## 
## $b
## # A tibble: 161 x 9
##     Year State  FIPS County_name State_name Commodity
##    <int> <int> <int> <chr>       <chr>      <chr>    
##  1  2008    31 31019 BUFFALO     NEBRASKA   CORN     
##  2  2008    31 31019 BUFFALO     NEBRASKA   CORN     
##  3  2008    31 31041 CUSTER      NEBRASKA   CORN     
##  4  2008    31 31041 CUSTER      NEBRASKA   CORN     
##  5  2008    31 31047 DAWSON      NEBRASKA   CORN     
##  6  2008    31 31047 DAWSON      NEBRASKA   CORN     
##  7  2008    31 31077 GREELEY     NEBRASKA   CORN     
##  8  2008    31 31077 GREELEY     NEBRASKA   CORN     
##  9  2008    31 31079 HALL        NEBRASKA   CORN     
## 10  2008    31 31079 HALL        NEBRASKA   CORN     
## # … with 151 more rows, and 3 more variables: `Data
## #   item` <chr>, Irrigated <int>, Yield <int>
```
…
For illustrations, we will use `flights_mini` that we create below:

```r
library(nycflights13)

(
flights_mini <- distinct(flights,month,day,.keep_all=TRUE) %>% 
  filter(day %in% c(1,2)) %>% 
  arrange(month)
)
```

```
## # A tibble: 24 x 19
##     year month   day dep_time sched_dep_time
##    <int> <int> <int>    <int>          <int>
##  1  2013     1     1      517            515
##  2  2013     1     2       42           2359
##  3  2013     2     1      456            500
##  4  2013     2     2        3           2359
##  5  2013     3     1        4           2159
##  6  2013     3     2       43           2355
##  7  2013     4     1      454            500
##  8  2013     4     2        9           2355
##  9  2013     5     1        9           1655
## 10  2013     5     2        3           1905
## # … with 14 more rows, and 14 more variables:
## #   dep_delay <dbl>, arr_time <int>,
## #   sched_arr_time <int>, arr_delay <dbl>,
## #   carrier <chr>, flight <int>, tailnum <chr>,
## #   origin <chr>, dest <chr>, air_time <dbl>,
## #   distance <dbl>, hour <dbl>, minute <dbl>,
## #   time_hour <dttm>
```
…
  ]

.panel[.panel-name[not equal to]
<br>
Observations where `month` is NOT 4:

```r
filter(flights_mini, month != 4) 
```

```
## # A tibble: 22 x 19
##     year month   day dep_time sched_dep_time
##    <int> <int> <int>    <int>          <int>
##  1  2013     1     1      517            515
##  2  2013     1     2       42           2359
##  3  2013     2     1      456            500
##  4  2013     2     2        3           2359
##  5  2013     3     1        4           2159
##  6  2013     3     2       43           2355
##  7  2013     5     1        9           1655
##  8  2013     5     2        3           1905
##  9  2013     6     1        2           2359
## 10  2013     6     2       14           2359
## # … with 12 more rows, and 14 more variables:
## #   dep_delay <dbl>, arr_time <int>,
## #   sched_arr_time <int>, arr_delay <dbl>,
## #   carrier <chr>, flight <int>, tailnum <chr>,
## #   origin <chr>, dest <chr>, air_time <dbl>,
## #   distance <dbl>, hour <dbl>, minute <dbl>,
## #   time_hour <dttm>
```
…
  ]

.panel[.panel-name[Example 1]

<br>

```r
select(flights_mini, arr_delay)
```

```
## # A tibble: 24 x 1
##    arr_delay
##        <dbl>
##  1        11
##  2        36
##  3         4
##  4        29
##  5       142
##  6        85
##  7        -4
##  8         1
##  9       408
## 10       257
## # … with 14 more rows
```

  ]

.panel[.panel-name[Example 2]

<br>

```r
select(flights_mini, month, arr_delay, dep_delay)
```

```
## # A tibble: 24 x 3
##    month arr_delay dep_delay
##    <int>     <dbl>     <dbl>
##  1     1        11         2
##  2     1        36        43
##  3     2         4        -4
##  4     2        29         4
##  5     3       142       125
##  6     3        85        48
##  7     4        -4        -6
##  8     4         1        14
##  9     5       408       434
## 10     5       257       298
## # … with 14 more rows
```
  ]

.panel[.panel-name[Example 3]

<br>

```r
select(flights_mini, - year, - month)  
```

```
## # A tibble: 24 x 17
##      day dep_time sched_dep_time dep_delay arr_time
##    <int>    <int>          <int>     <dbl>    <int>
##  1     1      517            515         2      830
##  2     2       42           2359        43      518
##  3     1      456            500        -4      652
##  4     2        3           2359         4      513
##  5     1        4           2159       125      318
##  6     2       43           2355        48      605
##  7     1      454            500        -6      636
##  8     2        9           2355        14      346
##  9     1        9           1655       434      308
## 10     2        3           1905       298      241
## # … with 14 more rows, and 12 more variables:
## #   sched_arr_time <int>, arr_delay <dbl>,
## #   carrier <chr>, flight <int>, tailnum <chr>,
## #   origin <chr>, dest <chr>, air_time <dbl>,
## #   distance <dbl>, hour <dbl>, minute <dbl>,
## #   time_hour <dttm>
```
…
.panel[.panel-name[Exercise 1]

<br>

E1: select all the columns except `arr_delay`

<br>
<html><div style='float:left'></div><hr color='#EB811B' size=1px width=1000px></html>
<br>

Here is the output you should get: 

```
## # A tibble: 24 x 18
##     year month   day dep_time sched_dep_time
##    <int> <int> <int>    <int>          <int>
##  1  2013     1     1      517            515
##  2  2013     1     2       42           2359
##  3  2013     2     1      456            500
##  4  2013     2     2        3           2359
##  5  2013     3     1        4           2159
##  6  2013     3     2       43           2355
##  7  2013     4     1      454            500
##  8  2013     4     2        9           2355
##  9  2013     5     1        9           1655
## 10  2013     5     2        3           1905
## # … with 14 more rows, and 13 more variables:
## #   dep_delay <dbl>, arr_time <int>,
## #   sched_arr_time <int>, carrier <chr>,
## #   flight <int>, tailnum <chr>, origin <chr>,
## #   dest <chr>, air_time <dbl>, distance <dbl>,
## #   hour <dbl>, minute <dbl>, time_hour <dttm>
```
…
.panel[.panel-name[Exercise 2]

<br>

E2: select `arr_delay` and `month`

<br>
<html><div style='float:left'></div><hr color='#EB811B' size=1px width=1000px></html>
<br>

Here is the output you should get: 

```
## # A tibble: 24 x 2
##    month arr_delay
##    <int>     <dbl>
##  1     1        11
##  2     1        36
##  3     2         4
##  4     2        29
##  5     3       142
##  6     3        85
##  7     4        -4
##  8     4         1
##  9     5       408
## 10     5       257
## # … with 14 more rows
```
…
---

# `relocate()`: change the column order 

<br>

You can use `relocate()` to change the column order. 

```r
relocate(flights_mini, dep_time, dep_delay)
```

```
## # A tibble: 24 x 19
##    dep_time dep_delay  year month   day
##       <int>     <dbl> <int> <int> <int>
##  1      517         2  2013     1     1
##  2       42        43  2013     1     2
##  3      456        -4  2013     2     1
##  4        3         4  2013     2     2
##  5        4       125  2013     3     1
##  6       43        48  2013     3     2
##  7      454        -6  2013     4     1
##  8        9        14  2013     4     2
##  9        9       434  2013     5     1
## 10        3       298  2013     5     2
## # … with 14 more rows, and 14 more variables:
## #   sched_dep_time <int>, arr_time <int>,
## #   sched_arr_time <int>, arr_delay <dbl>,
## #   carrier <chr>, flight <int>, tailnum <chr>,
## #   origin <chr>, dest <chr>, air_time <dbl>,
## #   distance <dbl>, hour <dbl>, minute <dbl>,
## #   time_hour <dttm>
```
…
You can use `ifelse()` like this:

.scroll-box-18[

```r
flights_mini %>% 
  mutate(
*   dep_time_correct = ifelse(origin == "JFK", dep_time + 10, dep_time)
  ) %>% 
  relocate(origin, dep_time, dep_time_correct) %>% arrange(origin) 
```

```
## # A tibble: 24 x 20
##    origin dep_time dep_time_correct  year month   day
##    <chr>     <int>            <dbl> <int> <int> <int>
##  1 EWR         517              517  2013     1     1
##  2 EWR         456              456  2013     2     1
##  3 EWR         454              454  2013     4     1
##  4 EWR         447              447  2013    10     1
##  5 EWR         449              449  2013    10     2
##  6 EWR         453              453  2013    11     2
##  7 JFK          42               52  2013     1     2
##  8 JFK           3               13  2013     2     2
##  9 JFK           4               14  2013     3     1
## 10 JFK          43               53  2013     3     2
## # … with 14 more rows, and 14 more variables:
## #   sched_dep_time <int>, dep_delay <dbl>,
## #   arr_time <int>, sched_arr_time <int>,
## #   arr_delay <dbl>, carrier <chr>, flight <int>,
## #   tailnum <chr>, dest <chr>, air_time <dbl>,
## #   distance <dbl>, hour <dbl>, minute <dbl>,
## #   time_hour <dttm>
```
…
You can use `ifelse()` for defining a dichotomous variable like this:

.scroll-box-20[

```r
flights_mini %>% 
  mutate(
*   loss_or_gain = ifelse(arr_delay > 0, "time-loss", "time-gain")
  ) %>% 
  relocate(arr_delay, loss_or_gain)
```

```
## # A tibble: 24 x 20
##    arr_delay loss_or_gain  year month   day dep_time
##        <dbl> <chr>        <int> <int> <int>    <int>
##  1        11 time-loss     2013     1     1      517
##  2        36 time-loss     2013     1     2       42
##  3         4 time-loss     2013     2     1      456
##  4        29 time-loss     2013     2     2        3
##  5       142 time-loss     2013     3     1        4
##  6        85 time-loss     2013     3     2       43
##  7        -4 time-gain     2013     4     1      454
##  8         1 time-loss     2013     4     2        9
##  9       408 time-loss     2013     5     1        9
## 10       257 time-loss     2013     5     2        3
## # … with 14 more rows, and 14 more variables:
## #   sched_dep_time <int>, dep_delay <dbl>,
## #   arr_time <int>, sched_arr_time <int>,
## #   carrier <chr>, flight <int>, tailnum <chr>,
## #   origin <chr>, dest <chr>, air_time <dbl>,
## #   distance <dbl>, hour <dbl>, minute <dbl>,
## #   time_hour <dttm>
```
…
.scroll-box-16[

```r
flights_mini %>% 
  mutate(origin = case_when(
    origin == "JFK" ~ "John F. Kennedy",
    origin == "EWR" ~ "Newark Liberty International", 
    origin == "LGA" ~ "LaGuardia" 
    )
  ) %>% relocate(origin)
```

```
## # A tibble: 24 x 19
##    origin  year month   day dep_time sched_dep_time
##    <chr>  <int> <int> <int>    <int>          <int>
##  1 Newar…  2013     1     1      517            515
##  2 John …  2013     1     2       42           2359
##  3 Newar…  2013     2     1      456            500
##  4 John …  2013     2     2        3           2359
##  5 John …  2013     3     1        4           2159
##  6 John …  2013     3     2       43           2355
##  7 Newar…  2013     4     1      454            500
##  8 John …  2013     4     2        9           2355
##  9 John …  2013     5     1        9           1655
## 10 John …  2013     5     2        3           1905
## # … with 14 more rows, and 13 more variables:
## #   dep_delay <dbl>, arr_time <int>,
## #   sched_arr_time <int>, arr_delay <dbl>,
## #   carrier <chr>, flight <int>, tailnum <chr>,
## #   dest <chr>, air_time <dbl>, distance <dbl>,
## #   hour <dbl>, minute <dbl>, time_hour <dttm>
```
…
As you can see, the default is the ascending order. 

  ]

.panel[.panel-name[Descending]

<br>

To arrange in the descending order, you use `desc()` function:

<code class ='r hljs remark-code'>arrange(flights_mini, <span style='background-color:#ffff7f'>desc</span>(dep_delay))</code>

```

## # A tibble: 24 x 19
##     year month   day dep_time sched_dep_time
##    <int> <int> <int>    <int>          <int>
##  1  2013     5     1        9           1655
##  2  2013     5     2        3           1905
##  3  2013     7     1        1           2029
##  4  2013     8     1       12           2130
##  5  2013     3     1        4           2159
##  6  2013     7     2       12           2245
##  7  2013    12     2       12           2250
##  8  2013     9     2        8           2255
##  9  2013     3     2       43           2355
## 10  2013     1     2       42           2359
## # … with 14 more rows, and 14 more variables:
## #   dep_delay <dbl>, arr_time <int>,
## #   sched_arr_time <int>, arr_delay <dbl>,
## #   carrier <chr>, flight <int>, tailnum <chr>,
## #   origin <chr>, dest <chr>, air_time <dbl>,
## #   distance <dbl>, hour <dbl>, minute <dbl>,
## #   time_hour <dttm>
…
.panel[.panel-name[Example]

<br>

+ (left): `flights_mini` has two observations per month (left). 
+ (right): Only one observation per month (12 unique values) after applying `distinct()` 

.left5[

```r
flights_mini
```

```
## # A tibble: 24 x 19
##     year month   day dep_time sched_dep_time
##    <int> <int> <int>    <int>          <int>
##  1  2013     1     1      517            515
##  2  2013     1     2       42           2359
##  3  2013     2     1      456            500
##  4  2013     2     2        3           2359
##  5  2013     3     1        4           2159
##  6  2013     3     2       43           2355
##  7  2013     4     1      454            500
##  8  2013     4     2        9           2355
##  9  2013     5     1        9           1655
## 10  2013     5     2        3           1905
## # … with 14 more rows, and 14 more variables:
## #   dep_delay <dbl>, arr_time <int>,
## #   sched_arr_time <int>, arr_delay <dbl>,
## #   carrier <chr>, flight <int>, tailnum <chr>,
## #   origin <chr>, dest <chr>, air_time <dbl>,
## #   distance <dbl>, hour <dbl>, minute <dbl>,
## #   time_hour <dttm>
```
…
   ]
 
 .panel[.panel-name[Step 1: grouping]
 
You first use `group_by()` to set the group for a dataset:

```r
flights_carrier <- group_by(flights, carrier)  

flights_carrier
```

```
## # A tibble: 336,776 x 19
## # Groups:   carrier [16]
##     year month   day dep_time sched_dep_time
##    <int> <int> <int>    <int>          <int>
##  1  2013     1     1      517            515
##  2  2013     1     1      533            529
##  3  2013     1     1      542            540
##  4  2013     1     1      544            545
##  5  2013     1     1      554            600
##  6  2013     1     1      554            558
##  7  2013     1     1      555            600
##  8  2013     1     1      557            600
##  9  2013     1     1      557            600
## 10  2013     1     1      558            600
## # … with 336,766 more rows, and 14 more variables:
## #   dep_delay <dbl>, arr_time <int>,
## #   sched_arr_time <int>, arr_delay <dbl>,
## #   carrier <chr>, flight <int>, tailnum <chr>,
## #   origin <chr>, dest <chr>, air_time <dbl>,
## #   distance <dbl>, hour <dbl>, minute <dbl>,
## #   time_hour <dttm>
```
…
# Grouped operations 

What happens if the applied function returns more than one values per group?

```r
flights %>% 
  group_by(carrier) %>% 
  summarize(
    quantile_arr_delay = quantile(arr_delay, prob = c(0.1, 0.9), na.rm = TRUE)
  ) 
```

```
## # A tibble: 32 x 2
## # Groups:   carrier [16]
##    carrier quantile_arr_delay
##    <chr>                <dbl>
##  1 9E                     -31
##  2 9E                      64
##  3 AA                     -32
##  4 AA                      38
##  5 AS                     -42
##  6 AS                      27
##  7 B6                     -23
##  8 B6                      56
##  9 DL                     -29
## 10 DL                      37
## # … with 22 more rows
```
…
# Grouped operations 

Multiple grouping variables?

```r
flights %>% 
  group_by(carrier, month) %>% 
  summarize(
    mean_arr_delay = mean(arr_delay, na.rm = TRUE)
  ) 
```

```
## # A tibble: 185 x 3
## # Groups:   carrier [16]
##    carrier month mean_arr_delay
##    <chr>   <int>          <dbl>
##  1 9E          1          10.2 
##  2 9E          2           8.28
##  3 9E          3           2.03
##  4 9E          4           5.47
##  5 9E          5          10.4 
##  6 9E          6          22.5 
##  7 9E          7          23.8 
##  8 9E          8           5.31
##  9 9E          9          -7.14
## 10 9E         10          -1.35
## # … with 175 more rows
```
…
You can assign the results of the grouped operations to new variables using `mutate()`

```r
flights_new <- flights %>% 
  group_by(carrier, month) %>% 
  mutate(
    mean_arr_delay = mean(arr_delay, na.rm = TRUE)
  ) %>% 
  relocate(mean_arr_delay)

flights_new
```

```
## # A tibble: 336,776 x 20
## # Groups:   carrier, month [185]
##    mean_arr_delay  year month   day dep_time
##             <dbl> <int> <int> <int>    <int>
##  1          3.18   2013     1     1      517
##  2          3.18   2013     1     1      533
##  3          0.982  2013     1     1      542
##  4          4.72   2013     1     1      544
##  5         -4.40   2013     1     1      554
##  6          3.18   2013     1     1      554
##  7          4.72   2013     1     1      555
##  8         25.2    2013     1     1      557
##  9          4.72   2013     1     1      557
## 10          0.982  2013     1     1      558
## # … with 336,766 more rows, and 15 more variables:
## #   sched_dep_time <int>, dep_delay <dbl>,
## #   arr_time <int>, sched_arr_time <int>,
## #   arr_delay <dbl>, carrier <chr>, flight <int>,
## #   tailnum <chr>, origin <chr>, dest <chr>,
## #   air_time <dbl>, distance <dbl>, hour <dbl>,
## #   minute <dbl>, time_hour <dttm>
```
…
For the rest of the exercises, we are going to use the weather data for the three airports in NY. First load the weather data and get familiar with the data set.

```r
#--- load the weather data ---#
data(weather)

#--- omit observations with NA in any of the variables ---#
weather <- na.omit(weather)

#--- take a look ---#
weather 
```

```
## # A tibble: 4,980 x 15
##    origin  year month   day  hour  temp  dewp humid
##    <chr>  <int> <int> <int> <int> <dbl> <dbl> <dbl>
##  1 EWR     2013     1     1    16  37.0  19.9  49.6
##  2 EWR     2013     1     1    18  34.0  15.1  45.4
##  3 EWR     2013     1     1    21  30.0  12.9  48.5
##  4 EWR     2013     1     1    22  28.9  12.0  48.7
##  5 EWR     2013     1     2     0  27.0  10.9  50.3
##  6 EWR     2013     1     2     1  26.1  10.9  52.2
##  7 EWR     2013     1     2    11  30.9  12.0  44.9
##  8 EWR     2013     1     2    12  32    12.9  44.7
##  9 EWR     2013     1     2    13  34.0  12.9  41.3
## 10 EWR     2013     1     2    14  34.0  10.9  37.9
## # … with 4,970 more rows, and 7 more variables:
## #   wind_dir <dbl>, wind_speed <dbl>,
## #   wind_gust <dbl>, precip <dbl>, pressure <dbl>,
## #   visib <dbl>, time_hour <dttm>
```
…
